#include<stdio.h>

int main()
{
    printf("Enter number of iternation: ");
    int num;
    scanf("%d",&num);
    int i,j;
    int sum=0;
    for(i=1; i<=num; i++)
    {
        //printf("%d ",i);
        for(j=1; j<=num; j++)
        {
            printf("%d ",j);
        }
        printf("\n");

    }
    //printf("\n\n%d",sum);
}
