#include<stdio.h>
//you can use mathematical function in the loop
//Break to terminate loop
//you need not to initialize all threee parts
int main()
{
    printf("Enter number: ");
    int num;
    scanf("%d",&num);

    int i;
    for(i=0; ; i++)
    {
        if(pow(2,i)<=num)
        {
            if(pow(2,i) == num )
            {
                printf("Yes. Two's %dth power",i);
                break;
            }
        }
        else
        {
            printf("No");
            break;
        }


    }
}
